[
  {
    "id": 7,
    "location": {
      "type": "Polygon",
      "coordinates": [
        [
          [
            26.83071881532669,
            59.440366471913364
          ],
          [
            26.830726861953732,
            59.44015918453124
          ],
          [
            26.831451058387756,
            59.440166003215325
          ],
          [
            26.8314591050148,
            59.44037192682733
          ],
          [
            26.83071881532669,
            59.440366471913364
          ]
        ]
      ]
    },
    "name": "Aseri",
    "type": "BRIDGE",
    "artificialScatterers": [
      {
        "id": 12,
        "location": {
          "type": "Point",
          "coordinates": [
            26.8312722222222,
            59.440325
          ]
        },
        "orbitDirection": "BOTH",
        "inUseFrom": "2017-01-03",
        "inUseTo": null
      },
      {
        "id": 13,
        "location": {
          "type": "Point",
          "coordinates": [
            26.8308138888889,
            59.4400972222222
          ]
        },
        "orbitDirection": "BOTH",
        "inUseFrom": "2017-01-03",
        "inUseTo": null
      }
    ],
    "developments": []
  },
  {
    "id": 6,
    "location": {
      "type": "Polygon",
      "coordinates": [
        [
          [
            24.9775164,
            59.4542747
          ],
          [
            24.978233,
            59.4537983
          ],
          [
            24.9832381,
            59.4553783
          ],
          [
            24.9825549,
            59.4559923
          ],
          [
            24.9775164,
            59.4542747
          ]
        ]
      ]
    },
    "name": "Kroodi",
    "type": "BRIDGE",
    "artificialScatterers": [
      {
        "id": 8,
        "location": {
          "type": "Point",
          "coordinates": [
            24.9787611111111,
            59.4543222222222
          ]
        },
        "orbitDirection": "BOTH",
        "inUseFrom": "2017-01-03",
        "inUseTo": null
      },
      {
        "id": 9,
        "location": {
          "type": "Point",
          "coordinates": [
            24.9797222222222,
            59.4546416666667
          ]
        },
        "orbitDirection": "BOTH",
        "inUseFrom": "2017-01-03",
        "inUseTo": null
      },
      {
        "id": 10,
        "location": {
          "type": "Point",
          "coordinates": [
            24.9805555555556,
            59.4549194444444
          ]
        },
        "orbitDirection": "BOTH",
        "inUseFrom": "2017-01-03",
        "inUseTo": null
      },
      {
        "id": 11,
        "location": {
          "type": "Point",
          "coordinates": [
            24.9815638888889,
            59.4552555555556
          ]
        },
        "orbitDirection": "BOTH",
        "inUseFrom": "2017-01-03",
        "inUseTo": null
      }
    ],
    "developments": []
  },
  {
    "id": 8,
    "location": {
      "type": "Polygon",
      "coordinates": [
        [
          [
            25.612864494323727,
            58.91748748518668
          ],
          [
            25.611684322357178,
            58.917620420864154
          ],
          [
            25.610225200653076,
            58.915825746047524
          ],
          [
            25.611255168914795,
            58.91560417478853
          ],
          [
            25.612864494323727,
            58.91748748518668
          ]
        ]
      ]
    },
    "name": "Mäo",
    "type": "BRIDGE",
    "artificialScatterers": [
      {
        "id": 14,
        "location": {
          "type": "Point",
          "coordinates": [
            25.6116972222222,
            58.9169972222222
          ]
        },
        "orbitDirection": "BOTH",
        "inUseFrom": "2016-12-30",
        "inUseTo": null
      },
      {
        "id": 15,
        "location": {
          "type": "Point",
          "coordinates": [
            25.6112444444444,
            58.9163333333333
          ]
        },
        "orbitDirection": "BOTH",
        "inUseFrom": "2016-12-30",
        "inUseTo": null
      }
    ],
    "developments": []
  },
  {
    "id": 5,
    "location": {
      "type": "Polygon",
      "coordinates": [
        [
          [
            24.461714029312134,
            58.397208569780275
          ],
          [
            24.461896419525146,
            58.3969387029516
          ],
          [
            24.464203119277954,
            58.39737723549912
          ],
          [
            24.463988542556763,
            58.39759649972719
          ],
          [
            24.461714029312134,
            58.397208569780275
          ]
        ]
      ]
    },
    "name": "Sauga",
    "type": "BRIDGE",
    "artificialScatterers": [
      {
        "id": 4,
        "location": {
          "type": "Point",
          "coordinates": [
            24.4624555555556,
            58.3971055555556
          ]
        },
        "orbitDirection": "BOTH",
        "inUseFrom": "2016-12-21",
        "inUseTo": null
      },
      {
        "id": 5,
        "location": {
          "type": "Point",
          "coordinates": [
            24.4624583333333,
            58.3971055555556
          ]
        },
        "orbitDirection": "BOTH",
        "inUseFrom": "2016-12-21",
        "inUseTo": null
      },
      {
        "id": 6,
        "location": {
          "type": "Point",
          "coordinates": [
            24.4635805555556,
            58.3972888888889
          ]
        },
        "orbitDirection": "BOTH",
        "inUseFrom": "2016-12-21",
        "inUseTo": null
      },
      {
        "id": 7,
        "location": {
          "type": "Point",
          "coordinates": [
            24.4635833333333,
            58.3972888888889
          ]
        },
        "orbitDirection": "BOTH",
        "inUseFrom": "2016-12-21",
        "inUseTo": null
      }
    ],
    "developments": []
  },
  {
    "id": 3,
    "location": {
      "type": "Polygon",
      "coordinates": [
        [
          [
            24.271714029,
            58.3972085
          ],
          [
            24.271896419,
            58.3969387
          ],
          [
            24.274203119,
            58.3973772
          ],
          [
            24.273988542,
            58.3975964
          ],
          [
            24.271714029,
            58.3972085
          ]
        ]
      ]
    },
    "name": "Test-sild",
    "type": "BRIDGE",
    "artificialScatterers": [
      {
        "id": 3,
        "location": {
          "type": "Point",
          "coordinates": [
            24.2724555555556,
            58.3971055555556
          ]
        },
        "orbitDirection": "BOTH",
        "inUseFrom": "2016-12-21",
        "inUseTo": null
      }
    ],
    "developments": []
  }
]
