[
  {
    "id": 1,
    "displacement": 2.0,
    "imageDate": "2011-01-01",
    "outputPoint": {
      "id": 7,
      "coherence": 0.92,
      "cumulativeDisplacement": 10.0,
      "height": 4.0,
      "heightWrt": 4.0,
      "location": {
        "type": "Point",
        "coordinates": [
          24.272,
          58.3972
        ]
      },
      "sigmaHeight": 1.0,
      "sigmaVelocity": 1.0,
      "velocity": 1.0,
      "pointName": "Kumulatiivne muutus: 10,00, koherentsus: 0,92"
    }
  },
  {
    "id": 2,
    "displacement": 4.0,
    "imageDate": "2012-01-01",
    "outputPoint": {
      "id": 7,
      "coherence": 0.92,
      "cumulativeDisplacement": 10.0,
      "height": 4.0,
      "heightWrt": 4.0,
      "location": {
        "type": "Point",
        "coordinates": [
          24.272,
          58.3972
        ]
      },
      "sigmaHeight": 1.0,
      "sigmaVelocity": 1.0,
      "velocity": 1.0,
      "pointName": "Kumulatiivne muutus: 10,00, koherentsus: 0,92"
    }
  },
  {
    "id": 3,
    "displacement": 3.0,
    "imageDate": "2012-02-01",
    "outputPoint": {
      "id": 7,
      "coherence": 0.92,
      "cumulativeDisplacement": 10.0,
      "height": 4.0,
      "heightWrt": 4.0,
      "location": {
        "type": "Point",
        "coordinates": [
          24.272,
          58.3972
        ]
      },
      "sigmaHeight": 1.0,
      "sigmaVelocity": 1.0,
      "velocity": 1.0,
      "pointName": "Kumulatiivne muutus: 10,00, koherentsus: 0,92"
    }
  },
  {
    "id": 4,
    "displacement": 6.0,
    "imageDate": "2012-03-01",
    "outputPoint": {
      "id": 7,
      "coherence": 0.92,
      "cumulativeDisplacement": 10.0,
      "height": 4.0,
      "heightWrt": 4.0,
      "location": {
        "type": "Point",
        "coordinates": [
          24.272,
          58.3972
        ]
      },
      "sigmaHeight": 1.0,
      "sigmaVelocity": 1.0,
      "velocity": 1.0,
      "pointName": "Kumulatiivne muutus: 10,00, koherentsus: 0,92"
    }
  },
  {
    "id": 5,
    "displacement": 1.0,
    "imageDate": "2012-04-01",
    "outputPoint": {
      "id": 7,
      "coherence": 0.92,
      "cumulativeDisplacement": 10.0,
      "height": 4.0,
      "heightWrt": 4.0,
      "location": {
        "type": "Point",
        "coordinates": [
          24.272,
          58.3972
        ]
      },
      "sigmaHeight": 1.0,
      "sigmaVelocity": 1.0,
      "velocity": 1.0,
      "pointName": "Kumulatiivne muutus: 10,00, koherentsus: 0,92"
    }
  },
  {
    "id": 6,
    "displacement": -2.0,
    "imageDate": "2012-05-01",
    "outputPoint": {
      "id": 7,
      "coherence": 0.92,
      "cumulativeDisplacement": 10.0,
      "height": 4.0,
      "heightWrt": 4.0,
      "location": {
        "type": "Point",
        "coordinates": [
          24.272,
          58.3972
        ]
      },
      "sigmaHeight": 1.0,
      "sigmaVelocity": 1.0,
      "velocity": 1.0,
      "pointName": "Kumulatiivne muutus: 10,00, koherentsus: 0,92"
    }
  },
  {
    "id": 7,
    "displacement": -3.0,
    "imageDate": "2012-06-01",
    "outputPoint": {
      "id": 7,
      "coherence": 0.92,
      "cumulativeDisplacement": 10.0,
      "height": 4.0,
      "heightWrt": 4.0,
      "location": {
        "type": "Point",
        "coordinates": [
          24.272,
          58.3972
        ]
      },
      "sigmaHeight": 1.0,
      "sigmaVelocity": 1.0,
      "velocity": 1.0,
      "pointName": "Kumulatiivne muutus:10,00, koherentsus: 0,92"
    }
  },
  {
    "id": 8,
    "displacement": 3.0,
    "imageDate": "2012-07-01",
    "outputPoint": {
      "id": 7,
      "coherence": 0.92,
      "cumulativeDisplacement": 10.0,
      "height": 4.0,
      "heightWrt": 4.0,
      "location": {
        "type": "Point",
        "coordinates": [
          24.272,
          58.3972
        ]
      },
      "sigmaHeight": 1.0,
      "sigmaVelocity": 1.0,
      "velocity": 1.0,
      "pointName": "Kumulatiivne muutus: 10,00, koherentsus: 0,92"
    }
  },
  {
    "id": 9,
    "displacement": 5.0,
    "imageDate": "2012-08-01",
    "outputPoint": {
      "id": 7,
      "coherence": 0.92,
      "cumulativeDisplacement": 10.0,
      "height": 4.0,
      "heightWrt": 4.0,
      "location": {
        "type": "Point",
        "coordinates": [
          24.272,
          58.3972
        ]
      },
      "sigmaHeight": 1.0,
      "sigmaVelocity": 1.0,
      "velocity": 1.0,
      "pointName": "Kumulatiivne muutus: 10,00, koherentsus: 0,92"
    }
  },
  {
    "id": 10,
    "displacement": 4.0,
    "imageDate": "2012-09-01",
    "outputPoint": {
      "id": 7,
      "coherence": 0.92,
      "cumulativeDisplacement": 10.0,
      "height": 4.0,
      "heightWrt": 4.0,
      "location": {
        "type": "Point",
        "coordinates": [
          24.272,
          58.3972
        ]
      },
      "sigmaHeight": 1.0,
      "sigmaVelocity": 1.0,
      "velocity": 1.0,
      "pointName": "Kumulatiivne muutus: 10,00, koherentsus: 0,92"
    }
  }
]
